<?xml version="1.0" encoding="UTF-8"?>
<svg xmlns="http://www.w3.org/2000/svg" width="155" height="20">
    <linearGradient id="b" x2="0" y2="100%">
        <stop offset="0" stop-color="#bbb" stop-opacity=".1"/>
        <stop offset="1" stop-opacity=".1"/>
    </linearGradient>
    <mask id="anybadge_4">
        <rect width="155" height="20" rx="3" fill="#fff"/>
    </mask>
    <g mask="url(#anybadge_4)">
        <path fill="#555" d="M0 0h102v20H0z"/>
        <path fill="#E05D44" d="M102 0h53v20H102z"/>
        <path fill="url(#b)" d="M0 0h155v20H0z"/>
    </g>
    <g fill="#fff" text-anchor="middle" font-family="DejaVu Sans,Verdana,Geneva,sans-serif" font-size="11">
        <text x="52.0" y="15" fill="#010101" fill-opacity=".3">Journal officiel</text>
        <text x="51.0" y="14">Journal officiel</text>
    </g>
    <g fill="#fff" text-anchor="middle" font-family="DejaVu Sans,Verdana,Geneva,sans-serif" font-size="11">
        <text x="129.5" y="15" fill="#010101" fill-opacity=".3">Accueil</text>
        <text x="128.5" y="14">Accueil</text>
    </g>
</svg>
